Capstone wk2
…
max(nchar(blogsData))

## [1] 1461

Data Visualization

Next, we will tokenize the data to create some more thorough visualizations. unnest_tokens creates a dataframe with the line number in the first column and each occurance of a given word in the second column.

twitterDF <- tibble(line = 1: length(twitterData), text = twitterData) 

(twitterTokenized <- twitterDF%>%
        unnest_tokens(word, text))

## # A tibble: 1,257 x 2
##     line word  
##    <int> <chr> 
##  1     1 how   
##  2     1 are   
##  3     1 you   
##  4     1 btw   
##  5     1 thanks
##  6     1 for   
##  7     1 the   
##  8     1 rt    
##  9     1 you   
## 10     1 gonna 
## # ... with 1,247 more rows
…
